{
  "generatedBy": "Microsoft.NET.Sdk.Functions.Generator-1.0.6",
  "configurationSource": "attributes",
  "bindings": [
    {
      "type": "httpTrigger",
      "methods": [
        "get"
      ],
      "authLevel": "function",
      "name": "req"
    }
  ],
  "disabled": false,
  "scriptFile": "../bin/aziothub-api.dll",
  "entryPoint": "Xompass.GetDeviceConnectionString.GetDeviceConnectionString.Run"
}
